fifo.vcd
$date
	Mon Oct 10 17:23:09 2022
$end
$version
	QuestaSim Version 2020.2
$end
$timescale
	1ns
$end

$scope module fifo_tb $end
$var parameter 32 ! WIDTH $end
$var reg 1 " clk_i $end
$var reg 1 # clear_n $end
$var reg 1 $ rst_n_i $end
$var reg 1 % we_i $end
$var reg 1 & re_i $end
$var reg 8 ' data_in [7:0] $end
$var reg 8 ( data_o [7:0] $end
$var reg 1 ) empty $end
$var reg 1 * full $end
$var reg 5 + usedw [4:0] $end
$var reg 8 , data_o2 [7:0] $end
$var reg 5 - usedw2 [4:0] $end
$var reg 1 . full2 $end
$var reg 1 / empty2 $end

$scope task write $end
$var reg 8 0 input_data [7:0] $end
$upscope $end

$scope task read $end
$upscope $end

$scope task reset $end
$upscope $end

$scope task clear $end
$upscope $end

$scope task lleno_memoria $end
$upscope $end

$scope task vacio_memoria $end
$upscope $end

$scope task escritura_lectura $end
$upscope $end

$scope task CHECK_GM $end
$upscope $end

$scope task llenado_vaciado_aleatorio $end
$upscope $end

$scope module subtarea1_inst $end
$var parameter 32 1 vacio $end
$var parameter 32 2 otros $end
$var parameter 32 3 lleno $end
$var wire 1 4 DATA_IN [0] $end
$var wire 1 5 DATA_IN [1] $end
$var wire 1 6 DATA_IN [2] $end
$var wire 1 7 DATA_IN [3] $end
$var wire 1 8 DATA_IN [4] $end
$var wire 1 9 DATA_IN [5] $end
$var wire 1 : DATA_IN [6] $end
$var wire 1 ; DATA_IN [7] $end
$var wire 1 < READ $end
$var wire 1 = WRITE $end
$var wire 1 > CLEAR_N $end
$var wire 1 ? RESET_N $end
$var wire 1 @ CLOCK $end
$var wire 1 A DATA_OUT [0] $end
$var wire 1 B DATA_OUT [1] $end
$var wire 1 C DATA_OUT [2] $end
$var wire 1 D DATA_OUT [3] $end
$var wire 1 E DATA_OUT [4] $end
$var wire 1 F DATA_OUT [5] $end
$var wire 1 G DATA_OUT [6] $end
$var wire 1 H DATA_OUT [7] $end
$var wire 1 I F_FULL_N $end
$var wire 1 J F_EMPTY_N $end
$var wire 1 K USE_DW [4] $end
$var wire 1 L USE_DW [3] $end
$var wire 1 M USE_DW [2] $end
$var wire 1 N USE_DW [1] $end
$var wire 1 O USE_DW [0] $end
$var reg 2 P estado [1:0] $end
$var reg 2 Q estado_sig [1:0] $end
$var reg 1 R enablew $end
$var reg 1 S enabler $end
$var reg 1 T enabledw $end
$var reg 1 U up_down $end
$var reg 1 V sel $end
$var reg 1 W mantener $end
$var wire 1 X TC1 $end
$var wire 1 Y TC2 $end
$var wire 1 Z data_ram_aux [7] $end
$var wire 1 [ data_ram_aux [6] $end
$var wire 1 \ data_ram_aux [5] $end
$var wire 1 ] data_ram_aux [4] $end
$var wire 1 ^ data_ram_aux [3] $end
$var wire 1 _ data_ram_aux [2] $end
$var wire 1 ` data_ram_aux [1] $end
$var wire 1 a data_ram_aux [0] $end
$var wire 1 b AUX [1] $end
$var wire 1 c AUX [0] $end
$var reg 8 d data_aux [7:0] $end
$var reg 1 e selreg $end
$var reg 1 f mantener_reg $end
$var wire 1 g countw [4] $end
$var wire 1 h countw [3] $end
$var wire 1 i countw [2] $end
$var wire 1 j countw [1] $end
$var wire 1 k countw [0] $end
$var wire 1 l countr [4] $end
$var wire 1 m countr [3] $end
$var wire 1 n countr [2] $end
$var wire 1 o countr [1] $end
$var wire 1 p countr [0] $end

$scope begin sobrellenado $end
$upscope $end

$scope begin sobrevaciado $end
$upscope $end

$scope begin nodeberia1 $end
$upscope $end

$scope begin nodeberia2 $end
$upscope $end

$scope module binary_counter_inst $end
$var parameter 32 q MODULO $end
$var parameter 32 r WIDTH $end
$var wire 1 @ clk $end
$var wire 1 > clear_n $end
$var wire 1 s enable $end
$var wire 1 t up_down $end
$var wire 1 ? reset $end
$var reg 5 u count [4:0] $end
$var wire 1 X TC1 $end
$var wire 1 Y TC2 $end
$upscope $end

$scope module contadorw $end
$var parameter 32 v final_count $end
$var parameter 32 w WIDTH $end
$var wire 1 @ CLOCK $end
$var wire 1 x ENA $end
$var wire 1 ? RESET_N $end
$var wire 1 > CLEAR_N $end
$var reg 5 y count [4:0] $end
$upscope $end

$scope module contadorr $end
$var parameter 32 z final_count $end
$var parameter 32 { WIDTH $end
$var wire 1 @ CLOCK $end
$var wire 1 | ENA $end
$var wire 1 ? RESET_N $end
$var wire 1 > CLEAR_N $end
$var reg 5 } count [4:0] $end
$upscope $end

$scope module ram_dp $end
$var parameter 32 ~ mem_depth $end
$var parameter 32 !! size $end
$var wire 1 4 data_in [7] $end
$var wire 1 5 data_in [6] $end
$var wire 1 6 data_in [5] $end
$var wire 1 7 data_in [4] $end
$var wire 1 8 data_in [3] $end
$var wire 1 9 data_in [2] $end
$var wire 1 : data_in [1] $end
$var wire 1 ; data_in [0] $end
$var wire 1 "! wren $end
$var wire 1 @ clock $end
$var wire 1 #! rden $end
$var wire 1 g wraddress [4] $end
$var wire 1 h wraddress [3] $end
$var wire 1 i wraddress [2] $end
$var wire 1 j wraddress [1] $end
$var wire 1 k wraddress [0] $end
$var wire 1 l rdaddress [4] $end
$var wire 1 m rdaddress [3] $end
$var wire 1 n rdaddress [2] $end
$var wire 1 o rdaddress [1] $end
$var wire 1 p rdaddress [0] $end
$var reg 8 $! data_out [7:0] $end
$upscope $end
$upscope $end

$scope module fifo_ideal $end
$var wire 1 %! clk $end
$var wire 1 &! reset $end
$var wire 1 '! dato_entrada [7] $end
$var wire 1 (! dato_entrada [6] $end
$var wire 1 )! dato_entrada [5] $end
$var wire 1 *! dato_entrada [4] $end
$var wire 1 +! dato_entrada [3] $end
$var wire 1 ,! dato_entrada [2] $end
$var wire 1 -! dato_entrada [1] $end
$var wire 1 .! dato_entrada [0] $end
$var wire 1 /! read $end
$var wire 1 0! write $end
$var reg 8 1! dato_salida [7:0] $end
$var reg 5 2! use_dw [4:0] $end
$var reg 1 3! lleno $end
$var reg 1 4! vacio $end

$scope begin sobrellenado $end
$upscope $end

$scope begin sobrevaciado $end
$upscope $end

$scope begin nodeberia1 $end
$upscope $end
$upscope $end
$upscope $end

$scope begin fifo_tb_sv_unit $end
$upscope $end

$scope begin std $end
$upscope $end
$enddefinitions $end
#0
$dumpvars
0"
1#
1$
0%
0&
bx '
bx (
x)
x*
bx +
bx ,
b0 -
0.
1/
bx P
b0 Q
0R
0S
0T
1U
0V
0W
bx d
xe
xf
bx u
bx y
bx }
bx $!
bx 1!
b0 2!
03!
14!
bx 0
b10000 !
b0 1
b1 2
b10 3
b100000 q
b100 r
b100000 v
b101 w
b100000 z
b101 {
b100000 ~
b1000 !!
xX
xY
xa
x`
x_
x^
x]
x\
x[
xZ
0c
0b
xk
xj
xi
xh
xg
xp
xo
xn
xm
xl
00!
0/!
x.!
x-!
x,!
x+!
x*!
x)!
x(!
x'!
1&!
0%!
0@
1?
1>
0=
0<
x;
x:
x9
x8
x7
x6
x5
x4
xH
xG
xF
xE
xD
xC
xB
xA
xI
xJ
xO
xN
xM
xL
xK
0#!
0"!
0|
0x
1t
0s
$end
#10
1"
1@
1%!
b0 P
1I
0J
0)
1*
#20
0"
0@
0%!
0$
0?
0&!
b0 u
b0 y
b0 }
0p
0o
0n
0m
0l
0k
0j
0i
0h
0g
0O
0N
0M
0L
0K
b0 +
0Y
0X
#30
1"
1@
1%!
#40
0"
0@
0%!
1$
b100100 0
1?
1&!
#50
1"
1@
1%!
#60
0"
0@
0%!
1%
b100100 '
10!
0.!
0-!
1,!
0+!
0*!
1)!
0(!
0'!
0;
0:
19
08
07
16
05
04
1=
1"!
1b
b1 Q
1R
1T
1x
1s
#70
1"
1@
1%!
b1 2!
04!
0/
b1 -
b1 u
b1 y
b1 P
1k
1O
1J
1)
b1 +
1Y
#80
0"
0@
0%!
0%
b10000001 0
00!
0=
0"!
0b
0R
0T
0x
0s
#90
1"
1@
1%!
#100
0"
0@
0%!
1%
b10000001 '
10!
1.!
0,!
0)!
1'!
1;
09
06
14
1=
1"!
1b
1R
1T
1x
1s
#110
1"
1@
1%!
b10 2!
b10 -
b10 u
b10 y
0k
1j
0O
1N
b10 +
0Y
#120
0"
0@
0%!
0%
b1001 0
00!
0=
0"!
0b
0R
0T
0x
0s
#130
1"
1@
1%!
#140
0"
0@
0%!
1%
b1001 '
10!
1+!
0'!
18
04
1=
1"!
1b
1R
1T
1x
1s
#150
1"
1@
1%!
b11 2!
b11 -
b11 u
b11 y
1k
1O
b11 +
#160
0"
0@
0%!
0%
b1100011 0
00!
0=
0"!
0b
0R
0T
0x
0s
#170
1"
1@
1%!
#180
0"
0@
0%!
1%
b1100011 '
10!
1-!
0+!
1)!
1(!
1:
08
16
15
1=
1"!
1b
1R
1T
1x
1s
#190
1"
1@
1%!
b100 2!
b100 -
b100 u
b100 y
0k
0j
1i
0O
0N
1M
b100 +
#200
0"
0@
0%!
0%
b1101 0
00!
0=
0"!
0b
0R
0T
0x
0s
#210
1"
1@
1%!
#220
0"
0@
0%!
1%
b1101 '
10!
0-!
1,!
1+!
0)!
0(!
0:
19
18
06
05
1=
1"!
1b
1R
1T
1x
1s
#230
1"
1@
1%!
b101 2!
b101 -
b101 u
b101 y
1k
1O
b101 +
#240
0"
0@
0%!
0%
b10001101 0
00!
0=
0"!
0b
0R
0T
0x
0s
#250
1"
1@
1%!
#260
0"
0@
0%!
1%
b10001101 '
10!
1'!
14
1=
1"!
1b
1R
1T
1x
1s
#270
1"
1@
1%!
b110 2!
b110 -
b110 u
b110 y
0k
1j
0O
1N
b110 +
#280
0"
0@
0%!
0%
b1100101 0
00!
0=
0"!
0b
0R
0T
0x
0s
#290
1"
1@
1%!
#300
0"
0@
0%!
1%
b1100101 '
10!
0+!
1)!
1(!
0'!
08
16
15
04
1=
1"!
1b
1R
1T
1x
1s
#310
1"
1@
1%!
b111 2!
b111 -
b111 u
b111 y
1k
1O
b111 +
#320
0"
0@
0%!
0%
b10010 0
00!
0=
0"!
0b
0R
0T
0x
0s
#330
1"
1@
1%!
#340
0"
0@
0%!
1%
b10010 '
10!
0.!
1-!
0,!
1*!
0)!
0(!
0;
1:
09
17
06
05
1=
1"!
1b
1R
1T
1x
1s
#350
1"
1@
1%!
b1000 2!
b1000 -
b1000 u
b1000 y
0k
0j
0i
1h
0O
0N
0M
1L
b1000 +
#360
0"
0@
0%!
0%
b1 0
00!
0=
0"!
0b
0R
0T
0x
0s
#370
1"
1@
1%!
#380
0"
0@
0%!
1%
b1 '
10!
1.!
0-!
0*!
1;
0:
07
1=
1"!
1b
1R
1T
1x
1s
#390
1"
1@
1%!
b1001 2!
b1001 -
b1001 u
b1001 y
1k
1O
b1001 +
#400
0"
0@
0%!
0%
b1101 0
00!
0=
0"!
0b
0R
0T
0x
0s
#410
1"
1@
1%!
#420
0"
0@
0%!
1%
b1101 '
10!
1,!
1+!
19
18
1=
1"!
1b
1R
1T
1x
1s
#430
1"
1@
1%!
b1010 2!
b1010 -
b1010 u
b1010 y
0k
1j
0O
1N
b1010 +
#440
0"
0@
0%!
0%
b1110110 0
00!
0=
0"!
0b
0R
0T
0x
0s
#450
1"
1@
1%!
#460
0"
0@
0%!
1%
b1110110 '
10!
0.!
1-!
0+!
1*!
1)!
1(!
0;
1:
08
17
16
15
1=
1"!
1b
1R
1T
1x
1s
#470
1"
1@
1%!
b1011 2!
b1011 -
b1011 u
b1011 y
1k
1O
b1011 +
#480
0"
0@
0%!
0%
b111101 0
00!
0=
0"!
0b
0R
0T
0x
0s
#490
1"
1@
1%!
#500
0"
0@
0%!
1%
b111101 '
10!
1.!
0-!
1+!
0(!
1;
0:
18
05
1=
1"!
1b
1R
1T
1x
1s
#510
1"
1@
1%!
b1100 2!
b1100 -
b1100 u
b1100 y
0k
0j
1i
0O
0N
1M
b1100 +
#520
0"
0@
0%!
0%
b11101101 0
00!
0=
0"!
0b
0R
0T
0x
0s
#530
1"
1@
1%!
#540
0"
0@
0%!
1%
b11101101 '
10!
0*!
1(!
1'!
07
15
14
1=
1"!
1b
1R
1T
1x
1s
#550
1"
1@
1%!
b1101 2!
b1101 -
b1101 u
b1101 y
1k
1O
b1101 +
#560
0"
0@
0%!
0%
b10001100 0
00!
0=
0"!
0b
0R
0T
0x
0s
#570
1"
1@
1%!
#580
0"
0@
0%!
1%
b10001100 '
10!
0.!
0)!
0(!
0;
06
05
1=
1"!
1b
1R
1T
1x
1s
#590
1"
1@
1%!
b1110 2!
b1110 -
b1110 u
b1110 y
0k
1j
0O
1N
b1110 +
#600
0"
0@
0%!
0%
b11111001 0
00!
0=
0"!
0b
0R
0T
0x
0s
#610
1"
1@
1%!
#620
0"
0@
0%!
1%
b11111001 '
10!
1.!
0,!
1*!
1)!
1(!
1;
09
17
16
15
1=
1"!
1b
1R
1T
1x
1s
#630
1"
1@
1%!
b1111 2!
b1111 -
b1111 u
b1111 y
1k
1O
b1111 +
#640
0"
0@
0%!
0%
b11000110 0
00!
0=
0"!
0b
0R
0T
0x
0s
#650
1"
1@
1%!
#660
0"
0@
0%!
1%
b11000110 '
10!
0.!
1-!
1,!
0+!
0*!
0)!
0;
1:
19
08
07
06
1=
1"!
1b
1R
1T
1x
1s
#670
1"
1@
1%!
b10000 2!
b10000 -
b10000 u
b10000 y
0k
0j
0i
0h
1g
0O
0N
0M
0L
1K
b10000 +
#680
0"
0@
0%!
0%
b11000101 0
00!
0=
0"!
0b
0R
0T
0x
0s
#690
1"
1@
1%!
#700
0"
0@
0%!
1%
b11000101 '
10!
1.!
0-!
1;
0:
1=
1"!
1b
1R
1T
1x
1s
#710
1"
1@
1%!
b10001 2!
b10001 -
b10001 u
b10001 y
1k
1O
b10001 +
#720
0"
0@
0%!
0%
b10101010 0
00!
0=
0"!
0b
0R
0T
0x
0s
#730
1"
1@
1%!
#740
0"
0@
0%!
1%
b10101010 '
10!
0.!
1-!
0,!
1+!
1)!
0(!
0;
1:
09
18
16
05
1=
1"!
1b
1R
1T
1x
1s
#750
1"
1@
1%!
b10010 2!
b10010 -
b10010 u
b10010 y
0k
1j
0O
1N
b10010 +
#760
0"
0@
0%!
0%
b11100101 0
00!
0=
0"!
0b
0R
0T
0x
0s
#770
1"
1@
1%!
#780
0"
0@
0%!
1%
b11100101 '
10!
1.!
0-!
1,!
0+!
1(!
1;
0:
19
08
15
1=
1"!
1b
1R
1T
1x
1s
#790
1"
1@
1%!
b10011 2!
b10011 -
b10011 u
b10011 y
1k
1O
b10011 +
#800
0"
0@
0%!
0%
b1110111 0
00!
0=
0"!
0b
0R
0T
0x
0s
#810
1"
1@
1%!
#820
0"
0@
0%!
1%
b1110111 '
10!
1-!
1*!
0'!
1:
17
04
1=
1"!
1b
1R
1T
1x
1s
#830
1"
1@
1%!
b10100 2!
b10100 -
b10100 u
b10100 y
0k
0j
1i
0O
0N
1M
b10100 +
#840
0"
0@
0%!
0%
b10010 0
00!
0=
0"!
0b
0R
0T
0x
0s
#850
1"
1@
1%!
#860
0"
0@
0%!
1%
b10010 '
10!
0.!
0,!
0)!
0(!
0;
09
06
05
1=
1"!
1b
1R
1T
1x
1s
#870
1"
1@
1%!
b10101 2!
b10101 -
b10101 u
b10101 y
1k
1O
b10101 +
#880
0"
0@
0%!
0%
b10001111 0
00!
0=
0"!
0b
0R
0T
0x
0s
#890
1"
1@
1%!
#900
0"
0@
0%!
1%
b10001111 '
10!
1.!
1,!
1+!
0*!
1'!
1;
19
18
07
14
1=
1"!
1b
1R
1T
1x
1s
#910
1"
1@
1%!
b10110 2!
b10110 -
b10110 u
b10110 y
0k
1j
0O
1N
b10110 +
#920
0"
0@
0%!
0%
b11110010 0
00!
0=
0"!
0b
0R
0T
0x
0s
#930
1"
1@
1%!
#940
0"
0@
0%!
1%
b11110010 '
10!
0.!
0,!
0+!
1*!
1)!
1(!
0;
09
08
17
16
15
1=
1"!
1b
1R
1T
1x
1s
#950
1"
1@
1%!
b10111 2!
b10111 -
b10111 u
b10111 y
1k
1O
b10111 +
#960
0"
0@
0%!
0%
b11001110 0
00!
0=
0"!
0b
0R
0T
0x
0s
#970
1"
1@
1%!
#980
0"
0@
0%!
1%
b11001110 '
10!
1,!
1+!
0*!
0)!
19
18
07
06
1=
1"!
1b
1R
1T
1x
1s
#990
1"
1@
1%!
b11000 2!
b11000 -
b11000 u
b11000 y
0k
0j
0i
1h
0O
0N
0M
1L
b11000 +
#1000
0"
0@
0%!
0%
b11101000 0
00!
0=
0"!
0b
0R
0T
0x
0s
#1010
1"
1@
1%!
#1020
0"
0@
0%!
1%
b11101000 '
10!
0-!
0,!
1)!
0:
09
16
1=
1"!
1b
1R
1T
1x
1s
#1030
1"
1@
1%!
b11001 2!
b11001 -
b11001 u
b11001 y
1k
1O
b11001 +
#1040
0"
0@
0%!
0%
b11000101 0
00!
0=
0"!
0b
0R
0T
0x
0s
#1050
1"
1@
1%!
#1060
0"
0@
0%!
1%
b11000101 '
10!
1.!
1,!
0+!
0)!
1;
19
08
06
1=
1"!
1b
1R
1T
1x
1s
#1070
1"
1@
1%!
b11010 2!
b11010 -
b11010 u
b11010 y
0k
1j
0O
1N
b11010 +
#1080
0"
0@
0%!
0%
b1011100 0
00!
0=
0"!
0b
0R
0T
0x
0s
#1090
1"
1@
1%!
#1100
0"
0@
0%!
1%
b1011100 '
10!
0.!
1+!
1*!
0'!
0;
18
17
04
1=
1"!
1b
1R
1T
1x
1s
#1110
1"
1@
1%!
b11011 2!
b11011 -
b11011 u
b11011 y
1k
1O
b11011 +
#1120
0"
0@
0%!
0%
b10111101 0
00!
0=
0"!
0b
0R
0T
0x
0s
#1130
1"
1@
1%!
#1140
0"
0@
0%!
1%
b10111101 '
10!
1.!
1)!
0(!
1'!
1;
16
05
14
1=
1"!
1b
1R
1T
1x
1s
#1150
1"
1@
1%!
b11100 2!
b11100 -
b11100 u
b11100 y
0k
0j
1i
0O
0N
1M
b11100 +
#1160
0"
0@
0%!
0%
b101101 0
00!
0=
0"!
0b
0R
0T
0x
0s
#1170
1"
1@
1%!
#1180
0"
0@
0%!
1%
b101101 '
10!
0*!
0'!
07
04
1=
1"!
1b
1R
1T
1x
1s
#1190
1"
1@
1%!
b11101 2!
b11101 -
b11101 u
b11101 y
1k
1O
b11101 +
#1200
0"
0@
0%!
0%
b1100101 0
00!
0=
0"!
0b
0R
0T
0x
0s
#1210
1"
1@
1%!
#1220
0"
0@
0%!
1%
b1100101 '
10!
0+!
1(!
08
15
1=
1"!
1b
1R
1T
1x
1s
#1230
1"
1@
1%!
b11110 2!
b11110 -
b11110 u
b11110 y
0k
1j
0O
1N
b11110 +
#1240
0"
0@
0%!
0%
b1100011 0
00!
0=
0"!
0b
0R
0T
0x
0s
#1250
1"
1@
1%!
#1260
0"
0@
0%!
1%
b1100011 '
10!
1-!
0,!
1:
09
1=
1"!
1b
1R
1T
1x
1s
#1270
1"
1@
1%!
b11111 2!
b11111 -
b11111 u
b11111 y
1k
1O
b11111 +
1X
b10 Q
#1280
0"
0@
0%!
0%
b1010 0
00!
0=
0"!
0b
b1 Q
0R
0T
0x
0s
#1290
1"
1@
1%!
#1300
0"
0@
0%!
1%
b1010 '
10!
0.!
1+!
0)!
0(!
0;
18
06
05
1=
1"!
1b
b10 Q
1R
1T
1x
1s
#1310
1"
1@
1%!
b0 2!
13!
1.
b0 -
b0 u
b0 y
b10 P
0k
0j
0i
0h
0g
0O
0N
0M
0L
0K
0I
0"!
0*
b0 +
0X
0R
0T
0x
0s
#1320
0"
0@
0%!
0%
b10000000 0
00!
0=
0b
#1330
1"
1@
1%!
#1340
0"
0@
0%!
1%
b10000000 '
10!
0-!
0+!
1'!
0:
08
14
1=
1b
#1350
1"
1@
1%!
#1360
0"
0@
0%!
0%
00!
0=
0b
#1370
1"
1@
1%!
#1380
0"
0@
0%!
1&
1/!
1<
1#!
1c
b1 Q
1W
0U
1S
1T
0t
1|
1s
#1390
1"
1@
1%!
b100100 1!
b100100 ,
b11111 2!
03!
0.
b11111 -
b1 }
b11111 u
0e
b1 P
b100100 $!
1I
0a
0`
1_
0^
0]
1\
0[
0Z
1O
1N
1M
1L
1K
1p
b11111 +
1*
0H
0G
1F
0E
0D
1C
0B
0A
b100100 (
1X
0W
1W
#1400
0"
0@
0%!
0&
0/!
0<
0#!
0c
0W
1U
0S
0T
1t
0|
0s
#1410
1"
1@
1%!
#1420
0"
0@
0%!
1&
1/!
1<
1#!
1c
1W
0U
1S
1T
0t
1|
1s
#1430
1"
1@
1%!
b10000001 1!
b10000001 ,
b11110 2!
b11110 -
b10 }
b11110 u
b10000001 $!
1a
0_
0\
1Z
0O
0p
1o
b11110 +
1H
0F
0C
1A
b10000001 (
0X
0W
1W
#1440
0"
0@
0%!
0&
0/!
0<
0#!
0c
0W
1U
0S
0T
1t
0|
0s
#1450
1"
1@
1%!
#1460
0"
0@
0%!
1&
1/!
1<
1#!
1c
1W
0U
1S
1T
0t
1|
1s
#1470
1"
1@
1%!
b1001 1!
b1001 ,
b11101 2!
b11101 -
b11 }
b11101 u
b1001 $!
1^
0Z
1O
0N
1p
b11101 +
1E
0A
b1001 (
#1480
0"
0@
0%!
0&
0/!
0<
0#!
0c
0W
1U
0S
0T
1t
0|
0s
#1490
1"
1@
1%!
#1500
0"
0@
0%!
1&
1/!
1<
1#!
1c
1W
0U
1S
1T
0t
1|
1s
#1510
1"
1@
1%!
b1100011 1!
b1100011 ,
b11100 2!
b11100 -
b100 }
b11100 u
b1100011 $!
1`
0^
1\
1[
0O
0p
0o
1n
b11100 +
1G
0E
1C
1B
b1100011 (
#1520
0"
0@
0%!
0&
0/!
0<
0#!
0c
0W
1U
0S
0T
1t
0|
0s
#1530
1"
1@
1%!
#1540
0"
0@
0%!
1&
1/!
1<
1#!
1c
1W
0U
1S
1T
0t
1|
1s
#1550
1"
1@
1%!
b1101 1!
b1101 ,
b11011 2!
b11011 -
b101 }
b11011 u
b1101 $!
0`
1_
1^
0\
0[
1O
1N
0M
1p
b11011 +
0G
1F
1E
0C
0B
b1101 (
#1560
0"
0@
0%!
0&
0/!
0<
0#!
0c
0W
1U
0S
0T
1t
0|
0s
#1570
1"
1@
1%!
#1580
0"
0@
0%!
1&
1/!
1<
1#!
1c
1W
0U
1S
1T
0t
1|
1s
#1590
1"
1@
1%!
b10001101 1!
b10001101 ,
b11010 2!
b11010 -
b110 }
b11010 u
b10001101 $!
1Z
0O
0p
1o
b11010 +
1A
b10001101 (
#1600
0"
0@
0%!
0&
0/!
0<
0#!
0c
0W
1U
0S
0T
1t
0|
0s
#1610
1"
1@
1%!
#1620
0"
0@
0%!
1&
1/!
1<
1#!
1c
1W
0U
1S
1T
0t
1|
1s
#1630
1"
1@
1%!
b1100101 1!
b1100101 ,
b11001 2!
b11001 -
b111 }
b11001 u
b1100101 $!
0^
1\
1[
0Z
1O
0N
1p
b11001 +
0E
1C
1B
0A
b1100101 (
#1640
0"
0@
0%!
0&
0/!
0<
0#!
0c
0W
1U
0S
0T
1t
0|
0s
#1650
1"
1@
1%!
#1660
0"
0@
0%!
1&
1/!
1<
1#!
1c
1W
0U
1S
1T
0t
1|
1s
#1670
1"
1@
1%!
b10010 1!
b10010 ,
b11000 2!
b11000 -
b1000 }
b11000 u
b10010 $!
0a
1`
0_
1]
0\
0[
0O
0p
0o
0n
1m
b11000 +
0H
1G
0F
1D
0C
0B
b10010 (
#1680
0"
0@
0%!
0&
0/!
0<
0#!
0c
0W
1U
0S
0T
1t
0|
0s
#1690
1"
1@
1%!
#1700
0"
0@
0%!
1&
1/!
1<
1#!
1c
1W
0U
1S
1T
0t
1|
1s
#1710
1"
1@
1%!
b1 1!
b1 ,
b10111 2!
b10111 -
b1001 }
b10111 u
b1 $!
1a
0`
0]
1O
1N
1M
0L
1p
b10111 +
1H
0G
0D
b1 (
#1720
0"
0@
0%!
0&
0/!
0<
0#!
0c
0W
1U
0S
0T
1t
0|
0s
#1730
1"
1@
1%!
#1740
0"
0@
0%!
1&
1/!
1<
1#!
1c
1W
0U
1S
1T
0t
1|
1s
#1750
1"
1@
1%!
b1101 1!
b1101 ,
b10110 2!
b10110 -
b1010 }
b10110 u
b1101 $!
1_
1^
0O
0p
1o
b10110 +
1F
1E
b1101 (
#1760
0"
0@
0%!
0&
0/!
0<
0#!
0c
0W
1U
0S
0T
1t
0|
0s
#1770
1"
1@
1%!
#1780
0"
0@
0%!
1&
1/!
1<
1#!
1c
1W
0U
1S
1T
0t
1|
1s
#1790
1"
1@
1%!
b1110110 1!
b1110110 ,
b10101 2!
b10101 -
b1011 }
b10101 u
b1110110 $!
0a
1`
0^
1]
1\
1[
1O
0N
1p
b10101 +
0H
1G
0E
1D
1C
1B
b1110110 (
#1800
0"
0@
0%!
0&
0/!
0<
0#!
0c
0W
1U
0S
0T
1t
0|
0s
#1810
1"
1@
1%!
#1820
0"
0@
0%!
1&
1/!
1<
1#!
1c
1W
0U
1S
1T
0t
1|
1s
#1830
1"
1@
1%!
b111101 1!
b111101 ,
b10100 2!
b10100 -
b1100 }
b10100 u
b111101 $!
1a
0`
1^
0[
0O
0p
0o
1n
b10100 +
1H
0G
1E
0B
b111101 (
#1840
0"
0@
0%!
0&
0/!
0<
0#!
0c
0W
1U
0S
0T
1t
0|
0s
#1850
1"
1@
1%!
#1860
0"
0@
0%!
1&
1/!
1<
1#!
1c
1W
0U
1S
1T
0t
1|
1s
#1870
1"
1@
1%!
b11101101 1!
b11101101 ,
b10011 2!
b10011 -
b1101 }
b10011 u
b11101101 $!
0]
1[
1Z
1O
1N
0M
1p
b10011 +
0D
1B
1A
b11101101 (
#1880
0"
0@
0%!
0&
0/!
0<
0#!
0c
0W
1U
0S
0T
1t
0|
0s
#1890
1"
1@
1%!
#1900
0"
0@
0%!
1&
1/!
1<
1#!
1c
1W
0U
1S
1T
0t
1|
1s
#1910
1"
1@
1%!
b10001100 1!
b10001100 ,
b10010 2!
b10010 -
b1110 }
b10010 u
b10001100 $!
0a
0\
0[
0O
0p
1o
b10010 +
0H
0C
0B
b10001100 (
#1920
0"
0@
0%!
0&
0/!
0<
0#!
0c
0W
1U
0S
0T
1t
0|
0s
#1930
1"
1@
1%!
#1940
0"
0@
0%!
1&
1/!
1<
1#!
1c
1W
0U
1S
1T
0t
1|
1s
#1950
1"
1@
1%!
b11111001 1!
b11111001 ,
b10001 2!
b10001 -
b1111 }
b10001 u
b11111001 $!
1a
0_
1]
1\
1[
1O
0N
1p
b10001 +
1H
0F
1D
1C
1B
b11111001 (
#1960
0"
0@
0%!
0&
0/!
0<
0#!
0c
0W
1U
0S
0T
1t
0|
0s
#1970
1"
1@
1%!
#1980
0"
0@
0%!
1&
1/!
1<
1#!
1c
1W
0U
1S
1T
0t
1|
1s
#1990
1"
1@
1%!
b11000110 1!
b11000110 ,
b10000 2!
b10000 -
b10000 }
b10000 u
b11000110 $!
0a
1`
1_
0^
0]
0\
0O
0p
0o
0n
0m
1l
b10000 +
0H
1G
1F
0E
0D
0C
b11000110 (
#2000
0"
0@
0%!
0&
0/!
0<
0#!
0c
0W
1U
0S
0T
1t
0|
0s
#2010
1"
1@
1%!
#2020
0"
0@
0%!
1&
1/!
1<
1#!
1c
1W
0U
1S
1T
0t
1|
1s
#2030
1"
1@
1%!
b11000101 1!
b11000101 ,
b1111 2!
b1111 -
b10001 }
b1111 u
b11000101 $!
1a
0`
1O
1N
1M
1L
0K
1p
b1111 +
1H
0G
b11000101 (
#2040
0"
0@
0%!
0&
0/!
0<
0#!
0c
0W
1U
0S
0T
1t
0|
0s
#2050
1"
1@
1%!
#2060
0"
0@
0%!
1&
1/!
1<
1#!
1c
1W
0U
1S
1T
0t
1|
1s
#2070
1"
1@
1%!
b10101010 1!
b10101010 ,
b1110 2!
b1110 -
b10010 }
b1110 u
b10101010 $!
0a
1`
0_
1^
1\
0[
0O
0p
1o
b1110 +
0H
1G
0F
1E
1C
0B
b10101010 (
#2080
0"
0@
0%!
0&
0/!
0<
0#!
0c
0W
1U
0S
0T
1t
0|
0s
#2090
1"
1@
1%!
#2100
0"
0@
0%!
1&
1/!
1<
1#!
1c
1W
0U
1S
1T
0t
1|
1s
#2110
1"
1@
1%!
b11100101 1!
b11100101 ,
b1101 2!
b1101 -
b10011 }
b1101 u
b11100101 $!
1a
0`
1_
0^
1[
1O
0N
1p
b1101 +
1H
0G
1F
0E
1B
b11100101 (
#2120
0"
0@
0%!
0&
0/!
0<
0#!
0c
0W
1U
0S
0T
1t
0|
0s
#2130
1"
1@
1%!
#2140
0"
0@
0%!
1&
1/!
1<
1#!
1c
1W
0U
1S
1T
0t
1|
1s
#2150
1"
1@
1%!
b1110111 1!
b1110111 ,
b1100 2!
b1100 -
b10100 }
b1100 u
b1110111 $!
1`
1]
0Z
0O
0p
0o
1n
b1100 +
1G
1D
0A
b1110111 (
#2160
0"
0@
0%!
0&
0/!
0<
0#!
0c
0W
1U
0S
0T
1t
0|
0s
#2170
1"
1@
1%!
#2180
0"
0@
0%!
1&
1/!
1<
1#!
1c
1W
0U
1S
1T
0t
1|
1s
#2190
1"
1@
1%!
b10010 1!
b10010 ,
b1011 2!
b1011 -
b10101 }
b1011 u
b10010 $!
0a
0_
0\
0[
1O
1N
0M
1p
b1011 +
0H
0F
0C
0B
b10010 (
#2200
0"
0@
0%!
0&
0/!
0<
0#!
0c
0W
1U
0S
0T
1t
0|
0s
#2210
1"
1@
1%!
#2220
0"
0@
0%!
1&
1/!
1<
1#!
1c
1W
0U
1S
1T
0t
1|
1s
#2230
1"
1@
1%!
b10001111 1!
b10001111 ,
b1010 2!
b1010 -
b10110 }
b1010 u
b10001111 $!
1a
1_
1^
0]
1Z
0O
0p
1o
b1010 +
1H
1F
1E
0D
1A
b10001111 (
