fifo.vcd
$date
	Mon Oct 10 13:51:09 2022
$end
$version
	QuestaSim Version 2020.2
$end
$timescale
	1ns
$end

$scope module fifo_tb $end
$var parameter 32 ! WIDTH $end
$var reg 1 " clk_i $end
$var reg 1 # clear_n $end
$var reg 1 $ rst_n_i $end
$var reg 1 % we_i $end
$var reg 1 & re_i $end
$var reg 8 ' data_in [7:0] $end
$var reg 8 ( data_o [7:0] $end
$var reg 1 ) empty $end
$var reg 1 * full $end
$var reg 5 + usedw [4:0] $end
$var reg 8 , data_o2 [7:0] $end
$var reg 5 - usedw2 [4:0] $end
$var reg 1 . full2 $end
$var reg 1 / empty2 $end
$var reg 1 0 fin_sim $end

$scope task write $end
$var reg 8 1 input_data [7:0] $end
$upscope $end

$scope task read $end
$upscope $end

$scope task reset $end
$upscope $end

$scope task clear $end
$upscope $end

$scope task lleno_memoria $end
$upscope $end

$scope task vacio_memoria $end
$upscope $end

$scope task escritura_lectura $end
$upscope $end

$scope task CHECK_GM $end
$upscope $end

$scope task llenado_vaciado_aleatorio $end
$upscope $end

$scope module subtarea1_inst $end
$var parameter 32 2 vacio $end
$var parameter 32 3 otros $end
$var parameter 32 4 lleno $end
$var wire 1 5 DATA_IN [0] $end
$var wire 1 6 DATA_IN [1] $end
$var wire 1 7 DATA_IN [2] $end
$var wire 1 8 DATA_IN [3] $end
$var wire 1 9 DATA_IN [4] $end
$var wire 1 : DATA_IN [5] $end
$var wire 1 ; DATA_IN [6] $end
$var wire 1 < DATA_IN [7] $end
$var wire 1 = READ $end
$var wire 1 > WRITE $end
$var wire 1 ? CLEAR_N $end
$var wire 1 @ RESET_N $end
$var wire 1 A CLOCK $end
$var wire 1 B DATA_OUT [0] $end
$var wire 1 C DATA_OUT [1] $end
$var wire 1 D DATA_OUT [2] $end
$var wire 1 E DATA_OUT [3] $end
$var wire 1 F DATA_OUT [4] $end
$var wire 1 G DATA_OUT [5] $end
$var wire 1 H DATA_OUT [6] $end
$var wire 1 I DATA_OUT [7] $end
$var wire 1 J F_FULL_N $end
$var wire 1 K F_EMPTY_N $end
$var wire 1 L USE_DW [4] $end
$var wire 1 M USE_DW [3] $end
$var wire 1 N USE_DW [2] $end
$var wire 1 O USE_DW [1] $end
$var wire 1 P USE_DW [0] $end
$var reg 2 Q estado [1:0] $end
$var reg 2 R estado_sig [1:0] $end
$var reg 1 S enablew $end
$var reg 1 T enabler $end
$var reg 1 U enabledw $end
$var reg 1 V up_down $end
$var reg 1 W sel $end
$var reg 1 X mantener $end
$var wire 1 Y TC1 $end
$var wire 1 Z TC2 $end
$var wire 1 [ data_ram_aux [7] $end
$var wire 1 \ data_ram_aux [6] $end
$var wire 1 ] data_ram_aux [5] $end
$var wire 1 ^ data_ram_aux [4] $end
$var wire 1 _ data_ram_aux [3] $end
$var wire 1 ` data_ram_aux [2] $end
$var wire 1 a data_ram_aux [1] $end
$var wire 1 b data_ram_aux [0] $end
$var wire 1 c AUX [1] $end
$var wire 1 d AUX [0] $end
$var reg 8 e data_aux [7:0] $end
$var reg 1 f selreg $end
$var reg 1 g mantener_reg $end
$var wire 1 h countw [4] $end
$var wire 1 i countw [3] $end
$var wire 1 j countw [2] $end
$var wire 1 k countw [1] $end
$var wire 1 l countw [0] $end
$var wire 1 m countr [4] $end
$var wire 1 n countr [3] $end
$var wire 1 o countr [2] $end
$var wire 1 p countr [1] $end
$var wire 1 q countr [0] $end

$scope begin sobrellenado $end
$upscope $end

$scope begin sobrevaciado $end
$upscope $end

$scope begin nodeberia1 $end
$upscope $end

$scope begin nodeberia2 $end
$upscope $end

$scope module binary_counter_inst $end
$var parameter 32 r MODULO $end
$var parameter 32 s WIDTH $end
$var wire 1 A clk $end
$var wire 1 ? clear_n $end
$var wire 1 t enable $end
$var wire 1 u up_down $end
$var wire 1 @ reset $end
$var reg 5 v count [4:0] $end
$var wire 1 Y TC1 $end
$var wire 1 Z TC2 $end
$upscope $end

$scope module contadorw $end
$var parameter 32 w final_count $end
$var parameter 32 x WIDTH $end
$var wire 1 A CLOCK $end
$var wire 1 y ENA $end
$var wire 1 @ RESET_N $end
$var wire 1 ? CLEAR_N $end
$var reg 5 z count [4:0] $end
$upscope $end

$scope module contadorr $end
$var parameter 32 { final_count $end
$var parameter 32 | WIDTH $end
$var wire 1 A CLOCK $end
$var wire 1 } ENA $end
$var wire 1 @ RESET_N $end
$var wire 1 ? CLEAR_N $end
$var reg 5 ~ count [4:0] $end
$upscope $end

$scope module ram_dp $end
$var parameter 32 !! mem_depth $end
$var parameter 32 "! size $end
$var wire 1 5 data_in [7] $end
$var wire 1 6 data_in [6] $end
$var wire 1 7 data_in [5] $end
$var wire 1 8 data_in [4] $end
$var wire 1 9 data_in [3] $end
$var wire 1 : data_in [2] $end
$var wire 1 ; data_in [1] $end
$var wire 1 < data_in [0] $end
$var wire 1 #! wren $end
$var wire 1 A clock $end
$var wire 1 $! rden $end
$var wire 1 h wraddress [4] $end
$var wire 1 i wraddress [3] $end
$var wire 1 j wraddress [2] $end
$var wire 1 k wraddress [1] $end
$var wire 1 l wraddress [0] $end
$var wire 1 m rdaddress [4] $end
$var wire 1 n rdaddress [3] $end
$var wire 1 o rdaddress [2] $end
$var wire 1 p rdaddress [1] $end
$var wire 1 q rdaddress [0] $end
$var reg 8 %! data_out [7:0] $end
$upscope $end
$upscope $end

$scope module fifo_ideal $end
$var wire 1 &! clk $end
$var wire 1 '! reset $end
$var wire 1 (! dato_entrada [7] $end
$var wire 1 )! dato_entrada [6] $end
$var wire 1 *! dato_entrada [5] $end
$var wire 1 +! dato_entrada [4] $end
$var wire 1 ,! dato_entrada [3] $end
$var wire 1 -! dato_entrada [2] $end
$var wire 1 .! dato_entrada [1] $end
$var wire 1 /! dato_entrada [0] $end
$var wire 1 0! read $end
$var wire 1 1! write $end
$var reg 8 2! dato_salida [7:0] $end
$var reg 5 3! use_dw [4:0] $end
$var reg 1 4! lleno $end
$var reg 1 5! vacio $end

$scope begin sobrellenado $end
$upscope $end

$scope begin sobrevaciado $end
$upscope $end

$scope begin nodeberia1 $end
$upscope $end
$upscope $end
$upscope $end

$scope begin fifo_tb_sv_unit $end
$upscope $end

$scope begin std $end
$upscope $end
$enddefinitions $end
#0
$dumpvars
0"
1#
1$
0%
0&
bx '
bx (
x)
x*
bx +
bx ,
b0 -
0.
1/
bx Q
b0 R
0S
0T
0U
1V
0W
0X
bx e
xf
xg
bx v
bx z
bx ~
bx %!
bx 2!
b0 3!
04!
15!
x0
bx 1
b10000 !
b0 2
b1 3
b10 4
b100000 r
b100 s
b100000 w
b101 x
b100000 {
b101 |
b100000 !!
b1000 "!
xY
xZ
xb
xa
x`
x_
x^
x]
x\
x[
0d
0c
xl
xk
xj
xi
xh
xq
xp
xo
xn
xm
01!
00!
x/!
x.!
x-!
x,!
x+!
x*!
x)!
x(!
1'!
0&!
0A
1@
1?
0>
0=
x<
x;
x:
x9
x8
x7
x6
x5
xI
xH
xG
xF
xE
xD
xC
xB
xJ
xK
xP
xO
xN
xM
xL
0$!
0#!
0}
0y
1u
0t
$end
#10
1"
1A
1&!
b0 Q
1J
0K
0)
1*
#20
0"
0A
0&!
0$
0@
0'!
b0 v
b0 z
b0 ~
0q
0p
0o
0n
0m
0l
0k
0j
0i
0h
0P
0O
0N
0M
0L
b0 +
0Z
0Y
#30
1"
1A
1&!
#40
0"
0A
0&!
1$
b100100 1
1@
1'!
#50
1"
1A
1&!
#60
0"
0A
0&!
1%
b100100 '
11!
0/!
0.!
1-!
0,!
0+!
1*!
0)!
0(!
0<
0;
1:
09
08
17
06
05
1>
1#!
1c
b1 R
1S
1U
1y
1t
#70
1"
1A
1&!
b1 3!
05!
0/
b1 -
b1 v
b1 z
b1 Q
1l
1P
1K
1)
b1 +
1Z
#80
0"
0A
0&!
0%
b10000001 1
01!
0>
0#!
0c
0S
0U
0y
0t
#90
1"
1A
1&!
#100
0"
0A
0&!
1%
b10000001 '
11!
1/!
0-!
0*!
1(!
1<
0:
07
15
1>
1#!
1c
1S
1U
1y
1t
#110
1"
1A
1&!
b10 3!
b10 -
b10 v
b10 z
0l
1k
0P
1O
b10 +
0Z
#120
0"
0A
0&!
0%
b1001 1
01!
0>
0#!
0c
0S
0U
0y
0t
#130
1"
1A
1&!
#140
0"
0A
0&!
1%
b1001 '
11!
1,!
0(!
19
05
1>
1#!
1c
1S
1U
1y
1t
#150
1"
1A
1&!
b11 3!
b11 -
b11 v
b11 z
1l
1P
b11 +
#160
0"
0A
0&!
0%
b1100011 1
01!
0>
0#!
0c
0S
0U
0y
0t
#170
1"
1A
1&!
#180
0"
0A
0&!
1%
b1100011 '
11!
1.!
0,!
1*!
1)!
1;
09
17
16
1>
1#!
1c
1S
1U
1y
1t
#190
1"
1A
1&!
b100 3!
b100 -
b100 v
b100 z
0l
0k
1j
0P
0O
1N
b100 +
#200
0"
0A
0&!
0%
b1101 1
01!
0>
0#!
0c
0S
0U
0y
0t
#210
1"
1A
1&!
#220
0"
0A
0&!
1%
b1101 '
11!
0.!
1-!
1,!
0*!
0)!
0;
1:
19
07
06
1>
1#!
1c
1S
1U
1y
1t
#230
1"
1A
1&!
b101 3!
b101 -
b101 v
b101 z
1l
1P
b101 +
#240
0"
0A
0&!
0%
b10001101 1
01!
0>
0#!
0c
0S
0U
0y
0t
#250
1"
1A
1&!
#260
0"
0A
0&!
1%
b10001101 '
11!
1(!
15
1>
1#!
1c
1S
1U
1y
1t
#270
1"
1A
1&!
b110 3!
b110 -
b110 v
b110 z
0l
1k
0P
1O
b110 +
#280
0"
0A
0&!
0%
b1100101 1
01!
0>
0#!
0c
0S
0U
0y
0t
#290
1"
1A
1&!
#300
0"
0A
0&!
1%
b1100101 '
11!
0,!
1*!
1)!
0(!
09
17
16
05
1>
1#!
1c
1S
1U
1y
1t
#310
1"
1A
1&!
b111 3!
b111 -
b111 v
b111 z
1l
1P
b111 +
#320
0"
0A
0&!
0%
b10010 1
01!
0>
0#!
0c
0S
0U
0y
0t
#330
1"
1A
1&!
#340
0"
0A
0&!
1%
b10010 '
11!
0/!
1.!
0-!
1+!
0*!
0)!
0<
1;
0:
18
07
06
1>
1#!
1c
1S
1U
1y
1t
#350
1"
1A
1&!
b1000 3!
b1000 -
b1000 v
b1000 z
0l
0k
0j
1i
0P
0O
0N
1M
b1000 +
#360
0"
0A
0&!
0%
b1 1
01!
0>
0#!
0c
0S
0U
0y
0t
#370
1"
1A
1&!
#380
0"
0A
0&!
1%
b1 '
11!
1/!
0.!
0+!
1<
0;
08
1>
1#!
1c
1S
1U
1y
1t
#390
1"
1A
1&!
b1001 3!
b1001 -
b1001 v
b1001 z
1l
1P
b1001 +
#400
0"
0A
0&!
0%
b1101 1
01!
0>
0#!
0c
0S
0U
0y
0t
#410
1"
1A
1&!
#420
0"
0A
0&!
1%
b1101 '
11!
1-!
1,!
1:
19
1>
1#!
1c
1S
1U
1y
1t
#430
1"
1A
1&!
b1010 3!
b1010 -
b1010 v
b1010 z
0l
1k
0P
1O
b1010 +
#440
0"
0A
0&!
0%
b1110110 1
01!
0>
0#!
0c
0S
0U
0y
0t
#450
1"
1A
1&!
#460
0"
0A
0&!
1%
b1110110 '
11!
0/!
1.!
0,!
1+!
1*!
1)!
0<
1;
09
18
17
16
1>
1#!
1c
1S
1U
1y
1t
#470
1"
1A
1&!
b1011 3!
b1011 -
b1011 v
b1011 z
1l
1P
b1011 +
#480
0"
0A
0&!
0%
b111101 1
01!
0>
0#!
0c
0S
0U
0y
0t
#490
1"
1A
1&!
#500
0"
0A
0&!
1%
b111101 '
11!
1/!
0.!
1,!
0)!
1<
0;
19
06
1>
1#!
1c
1S
1U
1y
1t
#510
1"
1A
1&!
b1100 3!
b1100 -
b1100 v
b1100 z
0l
0k
1j
0P
0O
1N
b1100 +
#520
0"
0A
0&!
0%
b11101101 1
01!
0>
0#!
0c
0S
0U
0y
0t
#530
1"
1A
1&!
#540
0"
0A
0&!
1%
b11101101 '
11!
0+!
1)!
1(!
08
16
15
1>
1#!
1c
1S
1U
1y
1t
#550
1"
1A
1&!
b1101 3!
b1101 -
b1101 v
b1101 z
1l
1P
b1101 +
#560
0"
0A
0&!
0%
b10001100 1
01!
0>
0#!
0c
0S
0U
0y
0t
#570
1"
1A
1&!
#580
0"
0A
0&!
1%
b10001100 '
11!
0/!
0*!
0)!
0<
07
06
1>
1#!
1c
1S
1U
1y
1t
#590
1"
1A
1&!
b1110 3!
b1110 -
b1110 v
b1110 z
0l
1k
0P
1O
b1110 +
#600
0"
0A
0&!
0%
b11111001 1
01!
0>
0#!
0c
0S
0U
0y
0t
#610
1"
1A
1&!
#620
0"
0A
0&!
1%
b11111001 '
11!
1/!
0-!
1+!
1*!
1)!
1<
0:
18
17
16
1>
1#!
1c
1S
1U
1y
1t
#630
1"
1A
1&!
b1111 3!
b1111 -
b1111 v
b1111 z
1l
1P
b1111 +
#640
0"
0A
0&!
0%
b11000110 1
01!
0>
0#!
0c
0S
0U
0y
0t
#650
1"
1A
1&!
#660
0"
0A
0&!
1%
b11000110 '
11!
0/!
1.!
1-!
0,!
0+!
0*!
0<
1;
1:
09
08
07
1>
1#!
1c
1S
1U
1y
1t
#670
1"
1A
1&!
b10000 3!
b10000 -
b10000 v
b10000 z
0l
0k
0j
0i
1h
0P
0O
0N
0M
1L
b10000 +
#680
0"
0A
0&!
0%
b11000101 1
01!
0>
0#!
0c
0S
0U
0y
0t
#690
1"
1A
1&!
#700
0"
0A
0&!
1%
b11000101 '
11!
1/!
0.!
1<
0;
1>
1#!
1c
1S
1U
1y
1t
#710
1"
1A
1&!
b10001 3!
b10001 -
b10001 v
b10001 z
1l
1P
b10001 +
#720
0"
0A
0&!
0%
b10101010 1
01!
0>
0#!
0c
0S
0U
0y
0t
#730
1"
1A
1&!
#740
0"
0A
0&!
1%
b10101010 '
11!
0/!
1.!
0-!
1,!
1*!
0)!
0<
1;
0:
19
17
06
1>
1#!
1c
1S
1U
1y
1t
#750
1"
1A
1&!
b10010 3!
b10010 -
b10010 v
b10010 z
0l
1k
0P
1O
b10010 +
#760
0"
0A
0&!
0%
b11100101 1
01!
0>
0#!
0c
0S
0U
0y
0t
#770
1"
1A
1&!
#780
0"
0A
0&!
1%
b11100101 '
11!
1/!
0.!
1-!
0,!
1)!
1<
0;
1:
09
16
1>
1#!
1c
1S
1U
1y
1t
#790
1"
1A
1&!
b10011 3!
b10011 -
b10011 v
b10011 z
1l
1P
b10011 +
#800
0"
0A
0&!
0%
b1110111 1
01!
0>
0#!
0c
0S
0U
0y
0t
#810
1"
1A
1&!
#820
0"
0A
0&!
1%
b1110111 '
11!
1.!
1+!
0(!
1;
18
05
1>
1#!
1c
1S
1U
1y
1t
#830
1"
1A
1&!
b10100 3!
b10100 -
b10100 v
b10100 z
0l
0k
1j
0P
0O
1N
b10100 +
#840
0"
0A
0&!
0%
b10010 1
01!
0>
0#!
0c
0S
0U
0y
0t
#850
1"
1A
1&!
#860
0"
0A
0&!
1%
b10010 '
11!
0/!
0-!
0*!
0)!
0<
0:
07
06
1>
1#!
1c
1S
1U
1y
1t
#870
1"
1A
1&!
b10101 3!
b10101 -
b10101 v
b10101 z
1l
1P
b10101 +
#880
0"
0A
0&!
0%
b10001111 1
01!
0>
0#!
0c
0S
0U
0y
0t
#890
1"
1A
1&!
#900
0"
0A
0&!
1%
b10001111 '
11!
1/!
1-!
1,!
0+!
1(!
1<
1:
19
08
15
1>
1#!
1c
1S
1U
1y
1t
#910
1"
1A
1&!
b10110 3!
b10110 -
b10110 v
b10110 z
0l
1k
0P
1O
b10110 +
#920
0"
0A
0&!
0%
b11110010 1
01!
0>
0#!
0c
0S
0U
0y
0t
#930
1"
1A
1&!
#940
0"
0A
0&!
1%
b11110010 '
11!
0/!
0-!
0,!
1+!
1*!
1)!
0<
0:
09
18
17
16
1>
1#!
1c
1S
1U
1y
1t
#950
1"
1A
1&!
b10111 3!
b10111 -
b10111 v
b10111 z
1l
1P
b10111 +
#960
0"
0A
0&!
0%
b11001110 1
01!
0>
0#!
0c
0S
0U
0y
0t
#970
1"
1A
1&!
#980
0"
0A
0&!
1%
b11001110 '
11!
1-!
1,!
0+!
0*!
1:
19
08
07
1>
1#!
1c
1S
1U
1y
1t
#990
1"
1A
1&!
b11000 3!
b11000 -
b11000 v
b11000 z
0l
0k
0j
1i
0P
0O
0N
1M
b11000 +
#1000
0"
0A
0&!
0%
b11101000 1
01!
0>
0#!
0c
0S
0U
0y
0t
#1010
1"
1A
1&!
#1020
0"
0A
0&!
1%
b11101000 '
11!
0.!
0-!
1*!
0;
0:
17
1>
1#!
1c
1S
1U
1y
1t
#1030
1"
1A
1&!
b11001 3!
b11001 -
b11001 v
b11001 z
1l
1P
b11001 +
#1040
0"
0A
0&!
0%
b11000101 1
01!
0>
0#!
0c
0S
0U
0y
0t
#1050
1"
1A
1&!
#1060
0"
0A
0&!
1%
b11000101 '
11!
1/!
1-!
0,!
0*!
1<
1:
09
07
1>
1#!
1c
1S
1U
1y
1t
#1070
1"
1A
1&!
b11010 3!
b11010 -
b11010 v
b11010 z
0l
1k
0P
1O
b11010 +
#1080
0"
0A
0&!
0%
b1011100 1
01!
0>
0#!
0c
0S
0U
0y
0t
#1090
1"
1A
1&!
#1100
0"
0A
0&!
1%
b1011100 '
11!
0/!
1,!
1+!
0(!
0<
19
18
05
1>
1#!
1c
1S
1U
1y
1t
#1110
1"
1A
1&!
b11011 3!
b11011 -
b11011 v
b11011 z
1l
1P
b11011 +
#1120
0"
0A
0&!
0%
b10111101 1
01!
0>
0#!
0c
0S
0U
0y
0t
#1130
1"
1A
1&!
#1140
0"
0A
0&!
1%
b10111101 '
11!
1/!
1*!
0)!
1(!
1<
17
06
15
1>
1#!
1c
1S
1U
1y
1t
#1150
1"
1A
1&!
b11100 3!
b11100 -
b11100 v
b11100 z
0l
0k
1j
0P
0O
1N
b11100 +
#1160
0"
0A
0&!
0%
b101101 1
01!
0>
0#!
0c
0S
0U
0y
0t
#1170
1"
1A
1&!
#1180
0"
0A
0&!
1%
b101101 '
11!
0+!
0(!
08
05
1>
1#!
1c
1S
1U
1y
1t
#1190
1"
1A
1&!
b11101 3!
b11101 -
b11101 v
b11101 z
1l
1P
b11101 +
#1200
0"
0A
0&!
0%
b1100101 1
01!
0>
0#!
0c
0S
0U
0y
0t
#1210
1"
1A
1&!
#1220
0"
0A
0&!
1%
b1100101 '
11!
0,!
1)!
09
16
1>
1#!
1c
1S
1U
1y
1t
#1230
1"
1A
1&!
b11110 3!
b11110 -
b11110 v
b11110 z
0l
1k
0P
1O
b11110 +
#1240
0"
0A
0&!
0%
b1100011 1
01!
0>
0#!
0c
0S
0U
0y
0t
#1250
1"
1A
1&!
#1260
0"
0A
0&!
1%
b1100011 '
11!
1.!
0-!
1;
0:
1>
1#!
1c
1S
1U
1y
1t
#1270
1"
1A
1&!
b11111 3!
b11111 -
b11111 v
b11111 z
1l
1P
b11111 +
1Y
b10 R
#1280
0"
0A
0&!
0%
b1010 1
01!
0>
0#!
0c
b1 R
0S
0U
0y
0t
#1290
1"
1A
1&!
#1300
0"
0A
0&!
1%
b1010 '
11!
0/!
1,!
0*!
0)!
0<
19
07
06
1>
1#!
1c
b10 R
1S
1U
1y
1t
#1310
1"
1A
1&!
b0 3!
14!
1.
b0 -
b0 v
b0 z
b10 Q
0l
0k
0j
0i
0h
0P
0O
0N
0M
0L
0J
0#!
0*
b0 +
0Y
0S
0U
0y
0t
#1320
0"
0A
0&!
0%
b10000000 1
01!
0>
0c
#1330
1"
1A
1&!
#1340
0"
0A
0&!
1%
b10000000 '
11!
0.!
0,!
1(!
0;
09
15
1>
1c
#1350
1"
1A
1&!
#1360
0"
0A
0&!
0%
01!
0>
0c
#1370
1"
1A
1&!
#1380
0"
0A
0&!
1&
10!
1=
1$!
1d
b1 R
1X
0V
1T
1U
0u
1}
1t
#1390
1"
1A
1&!
b100100 2!
b100100 ,
b11111 3!
04!
0.
b11111 -
b1 ~
b11111 v
0f
b1 Q
b100100 %!
1J
0b
0a
1`
0_
0^
1]
0\
0[
1P
1O
1N
1M
1L
1q
b11111 +
1*
0I
0H
1G
0F
0E
1D
0C
0B
b100100 (
1Y
0X
1X
#1400
0"
0A
0&!
0&
00!
0=
0$!
0d
0X
1V
0T
0U
1u
0}
0t
#1410
1"
1A
1&!
#1420
0"
0A
0&!
1&
10!
1=
1$!
1d
1X
0V
1T
1U
0u
1}
1t
#1430
1"
1A
1&!
b10000001 2!
b10000001 ,
b11110 3!
b11110 -
b10 ~
b11110 v
b10000001 %!
1b
0`
0]
1[
0P
0q
1p
b11110 +
1I
0G
0D
1B
b10000001 (
0Y
0X
1X
#1440
0"
0A
0&!
0&
00!
0=
0$!
0d
0X
1V
0T
0U
1u
0}
0t
#1450
1"
1A
1&!
#1460
0"
0A
0&!
1&
10!
1=
1$!
1d
1X
0V
1T
1U
0u
1}
1t
#1470
1"
1A
1&!
b1001 2!
b1001 ,
b11101 3!
b11101 -
b11 ~
b11101 v
b1001 %!
1_
0[
1P
0O
1q
b11101 +
1F
0B
b1001 (
#1480
0"
0A
0&!
0&
00!
0=
0$!
0d
0X
1V
0T
0U
1u
0}
0t
#1490
1"
1A
1&!
#1500
0"
0A
0&!
1&
10!
1=
1$!
1d
1X
0V
1T
1U
0u
1}
1t
#1510
1"
1A
1&!
b1100011 2!
b1100011 ,
b11100 3!
b11100 -
b100 ~
b11100 v
b1100011 %!
1a
0_
1]
1\
0P
0q
0p
1o
b11100 +
1H
0F
1D
1C
b1100011 (
#1520
0"
0A
0&!
0&
00!
0=
0$!
0d
0X
1V
0T
0U
1u
0}
0t
#1530
1"
1A
1&!
#1540
0"
0A
0&!
1&
10!
1=
1$!
1d
1X
0V
1T
1U
0u
1}
1t
#1550
1"
1A
1&!
b1101 2!
b1101 ,
b11011 3!
b11011 -
b101 ~
b11011 v
b1101 %!
0a
1`
1_
0]
0\
1P
1O
0N
1q
b11011 +
0H
1G
1F
0D
0C
b1101 (
#1560
0"
0A
0&!
0&
00!
0=
0$!
0d
0X
1V
0T
0U
1u
0}
0t
#1570
1"
1A
1&!
#1580
0"
0A
0&!
1&
10!
1=
1$!
1d
1X
0V
1T
1U
0u
1}
1t
#1590
1"
1A
1&!
b10001101 2!
b10001101 ,
b11010 3!
b11010 -
b110 ~
b11010 v
b10001101 %!
1[
0P
0q
1p
b11010 +
1B
b10001101 (
#1600
0"
0A
0&!
0&
00!
0=
0$!
0d
0X
1V
0T
0U
1u
0}
0t
#1610
1"
1A
1&!
#1620
0"
0A
0&!
1&
10!
1=
1$!
1d
1X
0V
1T
1U
0u
1}
1t
#1630
1"
1A
1&!
b1100101 2!
b1100101 ,
b11001 3!
b11001 -
b111 ~
b11001 v
b1100101 %!
0_
1]
1\
0[
1P
0O
1q
b11001 +
0F
1D
1C
0B
b1100101 (
#1640
0"
0A
0&!
0&
00!
0=
0$!
0d
0X
1V
0T
0U
1u
0}
0t
#1650
1"
1A
1&!
#1660
0"
0A
0&!
1&
10!
1=
1$!
1d
1X
0V
1T
1U
0u
1}
1t
#1670
1"
1A
1&!
b10010 2!
b10010 ,
b11000 3!
b11000 -
b1000 ~
b11000 v
b10010 %!
0b
1a
0`
1^
0]
0\
0P
0q
0p
0o
1n
b11000 +
0I
1H
0G
1E
0D
0C
b10010 (
#1680
0"
0A
0&!
0&
00!
0=
0$!
0d
0X
1V
0T
0U
1u
0}
0t
#1690
1"
1A
1&!
#1700
0"
0A
0&!
1&
10!
1=
1$!
1d
1X
0V
1T
1U
0u
1}
1t
#1710
1"
1A
1&!
b1 2!
b1 ,
b10111 3!
b10111 -
b1001 ~
b10111 v
b1 %!
1b
0a
0^
1P
1O
1N
0M
1q
b10111 +
1I
0H
0E
b1 (
#1720
0"
0A
0&!
0&
00!
0=
0$!
0d
0X
1V
0T
0U
1u
0}
0t
#1730
1"
1A
1&!
#1740
0"
0A
0&!
1&
10!
1=
1$!
1d
1X
0V
1T
1U
0u
1}
1t
#1750
1"
1A
1&!
b1101 2!
b1101 ,
b10110 3!
b10110 -
b1010 ~
b10110 v
b1101 %!
1`
1_
0P
0q
1p
b10110 +
1G
1F
b1101 (
#1760
0"
0A
0&!
0&
00!
0=
0$!
0d
0X
1V
0T
0U
1u
0}
0t
#1770
1"
1A
1&!
#1780
0"
0A
0&!
1&
10!
1=
1$!
1d
1X
0V
1T
1U
0u
1}
1t
#1790
1"
1A
1&!
b1110110 2!
b1110110 ,
b10101 3!
b10101 -
b1011 ~
b10101 v
b1110110 %!
0b
1a
0_
1^
1]
1\
1P
0O
1q
b10101 +
0I
1H
0F
1E
1D
1C
b1110110 (
#1800
0"
0A
0&!
0&
00!
0=
0$!
0d
0X
1V
0T
0U
1u
0}
0t
#1810
1"
1A
1&!
#1820
0"
0A
0&!
1&
10!
1=
1$!
1d
1X
0V
1T
1U
0u
1}
1t
#1830
1"
1A
1&!
b111101 2!
b111101 ,
b10100 3!
b10100 -
b1100 ~
b10100 v
b111101 %!
1b
0a
1_
0\
0P
0q
0p
1o
b10100 +
1I
0H
1F
0C
b111101 (
#1840
0"
0A
0&!
0&
00!
0=
0$!
0d
0X
1V
0T
0U
1u
0}
0t
#1850
1"
1A
1&!
#1860
0"
0A
0&!
1&
10!
1=
1$!
1d
1X
0V
1T
1U
0u
1}
1t
#1870
1"
1A
1&!
b11101101 2!
b11101101 ,
b10011 3!
b10011 -
b1101 ~
b10011 v
b11101101 %!
0^
1\
1[
1P
1O
0N
1q
b10011 +
0E
1C
1B
b11101101 (
#1880
0"
0A
0&!
0&
00!
0=
0$!
0d
0X
1V
0T
0U
1u
0}
0t
#1890
1"
1A
1&!
#1900
0"
0A
0&!
1&
10!
1=
1$!
1d
1X
0V
1T
1U
0u
1}
1t
#1910
1"
1A
1&!
b10001100 2!
b10001100 ,
b10010 3!
b10010 -
b1110 ~
b10010 v
b10001100 %!
0b
0]
0\
0P
0q
1p
b10010 +
0I
0D
0C
b10001100 (
#1920
0"
0A
0&!
0&
00!
0=
0$!
0d
0X
1V
0T
0U
1u
0}
0t
#1930
1"
1A
1&!
#1940
0"
0A
0&!
1&
10!
1=
1$!
1d
1X
0V
1T
1U
0u
1}
1t
#1950
1"
1A
1&!
b11111001 2!
b11111001 ,
b10001 3!
b10001 -
b1111 ~
b10001 v
b11111001 %!
1b
0`
1^
1]
1\
1P
0O
1q
b10001 +
1I
0G
1E
1D
1C
b11111001 (
#1960
0"
0A
0&!
0&
00!
0=
0$!
0d
0X
1V
0T
0U
1u
0}
0t
#1970
1"
1A
1&!
#1980
0"
0A
0&!
1&
10!
1=
1$!
1d
1X
0V
1T
1U
0u
1}
1t
#1990
1"
1A
1&!
b11000110 2!
b11000110 ,
b10000 3!
b10000 -
b10000 ~
b10000 v
b11000110 %!
0b
1a
1`
0_
0^
0]
0P
0q
0p
0o
0n
1m
b10000 +
0I
1H
1G
0F
0E
0D
b11000110 (
#2000
0"
0A
0&!
0&
00!
0=
0$!
0d
0X
1V
0T
0U
1u
0}
0t
#2010
1"
1A
1&!
#2020
0"
0A
0&!
1&
10!
1=
1$!
1d
1X
0V
1T
1U
0u
1}
1t
#2030
1"
1A
1&!
b11000101 2!
b11000101 ,
b1111 3!
b1111 -
b10001 ~
b1111 v
b11000101 %!
1b
0a
1P
1O
1N
1M
0L
1q
b1111 +
1I
0H
b11000101 (
#2040
0"
0A
0&!
0&
00!
0=
0$!
0d
0X
1V
0T
0U
1u
0}
0t
#2050
1"
1A
1&!
#2060
0"
0A
0&!
1&
10!
1=
1$!
1d
1X
0V
1T
1U
0u
1}
1t
#2070
1"
1A
1&!
b10101010 2!
b10101010 ,
b1110 3!
b1110 -
b10010 ~
b1110 v
b10101010 %!
0b
1a
0`
1_
1]
0\
0P
0q
1p
b1110 +
0I
1H
0G
1F
1D
0C
b10101010 (
#2080
0"
0A
0&!
0&
00!
0=
0$!
0d
0X
1V
0T
0U
1u
0}
0t
#2090
1"
1A
1&!
#2100
0"
0A
0&!
1&
10!
1=
1$!
1d
1X
0V
1T
1U
0u
1}
1t
#2110
1"
1A
1&!
b11100101 2!
b11100101 ,
b1101 3!
b1101 -
b10011 ~
b1101 v
b11100101 %!
1b
0a
1`
0_
1\
1P
0O
1q
b1101 +
1I
0H
1G
0F
1C
b11100101 (
#2120
0"
0A
0&!
0&
00!
0=
0$!
0d
0X
1V
0T
0U
1u
0}
0t
#2130
1"
1A
1&!
#2140
0"
0A
0&!
1&
10!
1=
1$!
1d
1X
0V
1T
1U
0u
1}
1t
#2150
1"
1A
1&!
b1110111 2!
b1110111 ,
b1100 3!
b1100 -
b10100 ~
b1100 v
b1110111 %!
1a
1^
0[
0P
0q
0p
1o
b1100 +
1H
1E
0B
b1110111 (
#2160
0"
0A
0&!
0&
00!
0=
0$!
0d
0X
1V
0T
0U
1u
0}
0t
#2170
1"
1A
1&!
#2180
0"
0A
0&!
1&
10!
1=
1$!
1d
1X
0V
1T
1U
0u
1}
1t
#2190
1"
1A
1&!
b10010 2!
b10010 ,
b1011 3!
b1011 -
b10101 ~
b1011 v
b10010 %!
0b
0`
0]
0\
1P
1O
0N
1q
b1011 +
0I
0G
0D
0C
b10010 (
#2200
0"
0A
0&!
0&
00!
0=
0$!
0d
0X
1V
0T
0U
1u
0}
0t
#2210
1"
1A
1&!
#2220
0"
0A
0&!
1&
10!
1=
1$!
1d
1X
0V
1T
1U
0u
1}
1t
#2230
1"
1A
1&!
b10001111 2!
b10001111 ,
b1010 3!
b1010 -
b10110 ~
b1010 v
b10001111 %!
1b
1`
1_
0^
1[
0P
0q
1p
b1010 +
1I
1G
1F
0E
1B
b10001111 (
